{
	"param": {
		"method": "oscorespls",
		"ncomp": 60,
		"validation": "CV",
		"segments": 10,
		"segment.type": "interleaved"
		},
	"responsefile_reader": {
		"ext": "csv"
	},
	"specfile_reader": {
		"ext": "rds"
	},
	"casefile_reader": {
		"ext": "csv" 
	},
	"plstype": "PLS1",
	"specfile": "~/data/spectra.rds",
	"responsefile": "~/data/FGs.csv",
	"variables": [ "aCH", "CO" ],
	"casefile": "~/cases/casefile.csv" 
}